{
    "loginType": "INFINITY",
    "logger": {
        "dirname": "/home/emgda/shopworx/logs",
        "loglevel": 10
    },
    "assetid": 4,
    "server": {
        "protocol": "http",
        "host": "192.168.1.100",
        "port": 80
    },
    "elements": {
        "substation": "substation",
        "order": "order",
        "orderproduct": "orderproduct",
        "orderrecipe": "orderrecipe",
        "orderroadmap": "orderroadmap",
        "roadmaplist": "roadmaplist",
        "roadmapdetails": "roadmapdetails",
        "ordercount": "ordercount",
        "checkin": "checkin",
        "checkout": "checkout",
        "component": "component",
        "partstatus": "partstatus",
        "rework": "rework",
        "bomdetails": "bomdetails",
        "componentcheck": "componentcheck",
        "productionimage": "productionimage",
        "productionimageinfo": "productionimageinfo",
        "componentlifealarm": "componentlifealarm"
    },
    "defaults": {
        "maxServerRetryCount": 3,
        "maxKafkaRetryCount": 3,
        "maxPLCRetryCheckoutFeedbackCount": 3,
        "maxPLCRetryCheckinFeedbackCount": 3,
        "maxPLCRetrySubAssemblyCheckFeedbackCount": 3,
        "maxPLCRetryComponentCheckFeedbackCount": 3,
        "maxPLCRetryReceipeCount": 3,
        "retryServerTimer": 1,
        "retryToPLCTimer": 200,
        "resetValueDealyTime": 0.5,
        "retrykafkaconnection": 10,
        "requesttimeout": 45,
        "componentID": "24",
        "batchID": "26",
        "subprocessparameters": "17",
        "processparameters": "18",
        "subprocessresult": "15",
        "normalmodestatus": 0,
        "isPreviousDataIgnored": true
    },
    "credential": {
        "identifier": "918928509173",
        "password": "entrib"
    }
}
