{
  "extends": [
    "tslint:recommended",
    "tslint-config-prettier",
    "tslint-config-airbnb"
  ],
  "rules": {
    "member-ordering": false,
    "object-literal-sort-keys": false,
    "ordered-imports": false,
    "quotemark": [true, "single"],
    "no-consecutive-blank-lines": false,
    "lines-between-class-members": [true, 2]
  },
  "linterOptions": {
    "exclude": ["./node_modules/**"]
  },
  "rulesDirectory": ["node_modules/tslint-lines-between-class-members"]
}
